ID,QUESTION,ANSWER1,ANSWER2,ANSWER3,ANSWER4,CORRECT_ANSWER
1,Elegancki męski strój z ciemnym żakietem o długich połach z tyłu sięgających kolan kamizelka z białą koszulą i plastronem nazywany jest,pingwinem,bocianem,kukułką,jaskółką,4
2,Ivory to odcień,zieleni,bieli,czerwieni,błękitu,2
3,Ile wynosi standardowy klatkaż filmów kinowych? ,4 klatki na sekundę ,20 klatek na sekundę ,24 klatki na sekundę  ,244 klatki na sekundę ,3
4,Najdłuższa rzeka Polski to,Wisłą,Warta,Dunaj,Dunajec,1
5,Najdłuższa rzeka świata to,Amazonka,Nill,Indus,Dunaj,2
6,Najwyższy szczyt Europy to,Mount Blanc,Mulhacen,Zugspitze,Grosglockner,1
7,Rysy to szczyt o wysokości,2500,2501,2502,2500,2
8,Mount Everest to szczyt o wysokości,8849,2000,2800,2799,1
9,W którym roku ogłoszono stan wojenny?1981,1999,1991,1945,1
10,Chińska żółta rzeka to,Huang he,Jangcy,Ganges,Indus,1
